{"prompt": "This is a test.\n\n###\n\n", "completion": " A test, this is.###"}
{"prompt": "I am David.\n\n###\n\n", "completion": " David, I am.###"}
{"prompt": "This is another sample.\n\n###\n\n", "completion": " Another sample, this is.###"}
{"prompt": "This is an apple.\n\n###\n\n", "completion": " An apple, this is.###"}
{"prompt": "This is a can.\n\n###\n\n", "completion": " A can, this is.###"}
{"prompt": "This is a bird.\n\n###\n\n", "completion": " A bird, this is.###"}
{"prompt": "This is a cow.\n\n###\n\n", "completion": " A cow, this is.###"}
{"prompt": "This is a thermos.\n\n###\n\n", "completion": " A thermos, this is.###"}
{"prompt": "This is a wallet.\n\n###\n\n", "completion": " A wallet, this is.###"}
{"prompt": "This is a computer.\n\n###\n\n", "completion": " A computer, this is.###"}
{"prompt": "This is a brain.\n\n###\n\n", "completion": " A brain, this is.###"}
{"prompt": "This is a picture.\n\n###\n\n", "completion": " A picture, this is.###"}
{"prompt": "This is a bottle.\n\n###\n\n", "completion": " A bottle, this is.###"}
{"prompt": "This is a statue.\n\n###\n\n", "completion": " A statue, this is.###"}
{"prompt": "This is a frame.\n\n###\n\n", "completion": " A frame, this is.###"}
{"prompt": "This is a desk.\n\n###\n\n", "completion": " A desk, this is.###"}
{"prompt": "This is an owl.\n\n###\n\n", "completion": " An owl, this is.###"}
{"prompt": "This is a chair.\n\n###\n\n", "completion": " A chair, this is.###"}
{"prompt": "This is a pilot.\n\n###\n\n", "completion": " A pilot, this is.###"}
{"prompt": "This is a man.\n\n###\n\n", "completion": " A man, this is.###"}
{"prompt": "This is a woman.\n\n###\n\n", "completion": " A woman, this is.###"}
{"prompt": "This is a child.\n\n###\n\n", "completion": " A child, this is.###"}
{"prompt": "This is a job.\n\n###\n\n", "completion": " A job, this is.###"}
{"prompt": "She dreamed of a better world.\n\n###\n\n", "completion": " Of a better world, she dreamed.###"}
{"prompt": "I was born to love you.\n\n###\n\n", "completion": " Born to love you, I was.###"}
{"prompt": "This song is great.\n\n###\n\n", "completion": " Great, this song is.###"}
{"prompt": "Here is where I'll be living until my time is up.\n\n###\n\n", "completion": " Where I'll be living, this is, until up, my time is.###"}
{"prompt": "I was born in the city.\n\n###\n\n", "completion": " Born in the city, I was.###"}
{"prompt": "My future lies here.\n\n###\n\n", "completion": " Lies here, my future does.###"}
{"prompt": "Many don't understand the force. They think in order to control it, they must dominate it.\n\n###\n\n", "completion": " Understand the force, many do not. Think they must dominate it to control it, they do.###"}
{"prompt": "The cow jumped over the moon. The chicken followed after.\n\n###\n\n", "completion": " Jumped over the moon, the cow did. Followed after, the chicken did.###"}
{"prompt": "I sat down at a California beach. A tidal wave washed up on the sand around me.  Take me farther and be my breath in the deep water.\n\n###\n\n", "completion": " Sat down on a California beach, I did.  Up on the sand around me, a tidal wave washed. Farther, take me. My breath in the deep water, be.###"}
{"prompt": "This may be too hard for your api to understand. I'm excited to see how far you can get.\n\n###\n\n", "completion": " Too hard for your api to understand, this may be. Excited to see how far you can get, I am.###"}
{"prompt": "Take me farther. Give me one day longer.\n\n###\n\n", "completion": " Farther, take me.  One day longer, give me.###"}
{"prompt": "It comes and goes in waves. It always runs back but it's never quite the same.\n\n###\n\n", "completion": " In waves, it comes and goes. Back it always runs, but never quite the same, it is.###"}
{"prompt": "Boys working on empty. Is that the kind of way to face the burning heat?\n\n###\n\n", "completion": " Working on empty, boys are.  The kind of way to face the burning heat, is that?###"}
{"prompt": "When my baby found me, I was burning up a fever.  I didn't care much how long I'd live.\n\n###\n\n", "completion": " When found me, my baby did, a fever I was burning up.  Care how long I'd live, I did not.###"}
{"prompt": "No grave can hold my body down. I'll crawl home to her.\n\n###\n\n", "completion": " Hold my body down, no grave can. Home to her, I will crawl.###"}
{"prompt": "When my time comes around, lay me gently in the cold dark earth.\n\n###\n\n", "completion": " When around my time comes, gently in the cold dark earth, lay me.###"}
{"prompt": "Who knows how long I've been awake now? The shadows on my wall don't sleep. My age has never made me wise. But I keep pushing on and on.\n\n###\n\n", "completion": " How long I've been awake now, who knows? Sleep, the shadows on my wall do not. Wise, my age has never made me.  But keep pushing on and on, I do.###"}
{"prompt": "Below my soul I feel an engine collapsing as it sees the pain. I've come too far to give up now, even if my way is wrong. There's nothing left to say now.\n\n###\n\n", "completion": " An engine collapsing as the pain it sees, below my soul I fell.  Even if wrong, my way is, too far to give up, I have come. Something left to say now, there is not.###"}
{"prompt": "I am worried that my test data is confusing you. I'm not confident that this process will pay off. I figure it's worth a try anyway.\n\n###\n\n", "completion": " Worried that my test data is confusing you, I am. Confident that this test process will pay off, I am not.  Figure it's worth a try anyway, I do.###"}
{"prompt": "How many sentences should I include in each prompt? Is there a limit or a recommended maximum?  Where do we go from here? I threw some rocks right up your window. I broke some rocks right through your window. Is that a problem?\n\n###\n\n", "completion": " Include sentences in each prompt, how many should I? A limit or a recommended maximum, is there? Go from here, where do we? Threw some rocks right up your window, I did. Broke some rocks right through your window, I did. A problem, is that?###"}
{"prompt": "We fall apart. Sometimes it can be fun to listen to upbeat music while programming. I think this model will be incapable of parsing complicated sentences. Take these words and make them right.  One day you and I will write our names in the sky. We'll confide. I'll find mine on the right of your side. If I throw away my fear and pride to set things right, then I'll find mine on the right of your side. Brothers and sisters, fill these cups with life. Please forgive them for they know not their lies.\n\n###\n\n", "completion": " Apart, we fall. Sometimes fun, it can be, to listen to upbeat music while program, we do. Think this model will be incapable of parsing complicated sentences, I do. These words, take, and right, make them. One day write our names in the sky, you and I will. Confide, we will. Find mine on the right of your side, I will. If away I throw my fear and pride and right I set things, then find mine on the right of your side, I will. Brothers and sisters, these cups with life, fill. Forgive them, please, for their lies, they know not.###"}
{"prompt": "We'll have driven through the night. Baby come on. If the sun don't shine for me today and if the subways flood and bridges break, will you lay yourself down and dig your grave? Or will you rail against the dying day? And when we looked outside, we couldn't even see the sky. How do you pay the rent, is it your parents? Or is it hard work dear, here in the atmosphere.\n\n###\n\n", "completion": " Driven through the night, we will have. On, come baby. If shine for me today the sun does not, and if break and flood the subways do, then lay yourself down and dig your grave, will you? Or rail against the dying day, will you? And when outside we looked, even see the sky we could not. Pay the rent, how do you? Your parents, is it? Or hard work here in the atmosphere, is it dear?###"}
{"prompt": "I'll kneel down and wait for you. Raise my hands, paint my spirit gold. Bow my head, feel my brain slow.\n\n###\n\n", "completion": " Kneel down and wait for you, I will. My hands raise, my spirit paint gold.  My head bow, my brain, feel slow.###"}
{"prompt": "You don't know what you'll find under the surface until it's your time. I can't see you but I hear your voice saying \"hold on now.\" When I see your light shine I know I'm home. Some things are simple and hard to ignore. They say the truth is like that. We're getting colder, farther from the shore. I say, the world is like that. We're going home. If you're waiting on your life you won't ever go.\n\n###\n\n", "completion": " Know what you'll find under the surface, you do not, until your time, it is. See you, I cannot, but hear your voice saying \"hold on now\" I do. When see your light shine I do, home I know I am. Simple and hard to ignore, some things are. Say the truth is like that, they do. Getting colder, we are, farther from the shore. The world is like that, I say. Home we are going. If waiting on your life you are, ever go you will not.###"}
{"prompt": "Amazing how we got this far. It's like we're shining all those stars, and chasing big black cars. So tell me what you want hear, something that will light those ears. I'm sick of all the insincere, I'm going to give all my secrets away.\n\n###\n\n", "completion": " Amazing how we got this far, it is. Like, it is, shining all those stars, we are, and big black cars, chasing. So what you want to hear, tell me, light those ears, it will. Sick of all the insincere, I am. Going to give all my secrets away, I am.###"}
{"prompt": "Yoda needs some more test input.  He's actually not doing too badly already.\n\n###\n\n", "completion": " Needs some more test input, Yoda does.  Actually not doing too badly already, he is.###"}
{"prompt": "Sometimes I think the inputs I give the trainer are actually confusing it more than helping.  Too bad that I don't know enough about its inner workings to validate my fears.\n\n###\n\n", "completion": " Sometimes think the inputs I give the trainer are actually confusing it more than helping, I do. That know enough about its inner workings to validate my fears I do not, too bad it is.###"}
{"prompt": "I shouldn't shy away from complicated sentences because that's where Yoda will succeed or fail.  I'm going to speak as I would if I were having a normal conversation with my peers.  Hopefully Yoda will be able to keep up.  I'm not sure how I would even translate this by hand into yodaspeak, but I guess I'm about to find out :)\n\n###\n\n", "completion": " Shy away from complicated sentences, I should not, because where Yoda will succeed or fail, that is.  Speak as I would if I were having a normal conversation with my peers, I will.  Keep up, hopefully Yoda can.  How I would translate this by hand into yodaspeak, I am not sure, but about to find out, I am. :)###"}
{"prompt": "Yoda needs many training variations on a normal sentence to figure out how to handle them.  I wish there were a repository of things that Yoda has said online.  Of course, one issue with the strategy of starting from things Yoda has said and working backwards is that there are many things a normal person would say which cannot be translated into anything even remotely close to something Yoda would say.  He doesn't use long sentences, and he chooses simple words whenever possible.  Perhaps I should start modifying the training data to follow the patterns I just observed.\n\n###\n\n", "completion": " Many training variations on a normal sentence, Yoda needs. Figure out how to handle them, he will.  Wish there were a repository of things Yoda has said online, I do. Of course, one issue with the strategy of starting from things Yoda has said and working backwards, there is.  Many things there are, which say, a normal person would, which translated into anything close to something Yoda would say, they cannot be. Use long sentences he does not, and choose simple words whenever possible he does. Perhaps start modifying the training data to follow the patterns I just observed, I should.###"}
{"prompt": "At least Morse Corbitt is simple enough.  He doesn't require complicated and difficult-to-express rules to operate effectively.  All he needs to do is translate individual characters into their morse equivalent.  What could be simpler?\n\n###\n\n", "completion": " Simple enough, Morse Corbitt is.  Require complicated and difficult-to-express rules to operate effectively, he does not.  Only translate individual characters into their morse equivalent, he must.  More simple, what could be?###"}
{"prompt": "What's your favorite type of rabbit?\n\n###\n\n", "completion": " A favorite type of rabbit, do you have?###"}
{"prompt": "Will Curie be anywhere near as good as Davinci?  I'm thinking that the answer is likely no.\n\n###\n\n", "completion": " Anywhere near as good as Davinci, will Curie be?  Thinking the answer is likely no, I am.###"}
{"prompt": "It's easy to give a perfect answer when there's already one provided for you.\n\n###\n\n", "completion": " Easy to give a perfect answer, it is, when already one provided for you, there is.###"}
{"prompt": "Can you just be more like babbage?\n\n###\n\n", "completion": "  More like babbage, can you be?###"}
{"prompt": "Babbage is already pretty good\n\n###\n\n", "completion": " Already pretty good, Babbage is###"}
{"prompt": "What do I wish were the result I received for this test?  What will the result actually turn out to be?\n\n###\n\n", "completion": " A preferred result for this test, do I have?  Actually turn out to be, what will the result?###"}
{"prompt": "I guess I should start testing anything that comes to mind.  There will be many problems I'll run into along the way, but that's just part of the journey\n\n###\n\n", "completion": " Start testing anything that comes to mind, I should.  Many problems I run into along the way, there will be.  Just part of the journey, that is.###"}
{"prompt": "Here's another test for you.  A long glass rose rests across the rear of my desk.  Will this text help you decide more accurately how to rewrite the next text I send you?  I don't know.\n\n###\n\n", "completion": " Another test for you, this is.  Rest across the rear of my desk, a long glass rose does.  Help you decide more accurately how to rewrite the next text I send you, will this text?###"}
{"prompt": "I don't know\n\n###\n\n", "completion": " Know, I do not.###"}
{"prompt": "I can't figure it out.\n\n###\n\n", "completion": " Figure it out, I cannot.###"}
{"prompt": "This is kind of hard.\n\n###\n\n", "completion": " Kind of hard, this is.###"}
{"prompt": "I am impressed with how quickly this bot has been learning.  I didn't think adding a few more samples would seriously affect how well this bot translates\n\n###\n\n", "completion": " Impressed with how quickly this bot has been learning, I am.  Think adding a few more samples would seriously affect how well this bot translates, I did not.###"}
{"prompt": "Maybe after a few more sentences I will call it a night.  This algorithm is cool. I don't think I will be able to make the chat app I intended earlier, but I do think I'll be able to have a lot of fun with it anyway.\n\n###\n\n", "completion": " Maybe after a few more sentences, call it a night I will.  Cool, this algorithm is.  Think I will be able to make the chat app I intended earlier, I do not. But have a lot of fun with it anyway, I will.###"}
{"prompt": "That model is still being loaded. Please try again shortly\n\n###\n\n", "completion": " Still being loaded, that model is. Try again shortly, please do.###"}
{"prompt": "I'm going to show you every step of the process, so that you can be a coder too.  This stuff isn't terribly hard once you get the hang of it.\n\n###\n\n", "completion": " Show you every step of the process I will, so that a coder, you can be too.  Terribly hard, this stuff is not, once understand it, you do.###"}
{"prompt": "This is not a terrible way to implement a yoda chatbot.\n\n###\n\n", "completion": " A terrible way to implement a yoda chatbot, this is not.###"}
{"prompt": "Yep they had a great time. Apparently that church building is where grandma went to church, our great great grandpa helped build it, and her dad updated the lights to electric\n\nAnd they had their wedding reception there. And grandpa carried her through a foot of snow to go with her to a new years dance when they were first dating. So there were lots of good memories there\n\n###\n\n", "completion": " A great time, they had. Where grandma went to church, that church building is. Updated the lights to electric, her dad did.\n\nTheir wedding reception, they had there.  And through a foot of snow, grandpa carried her, to go to a new years dance with her when first dating, they were. Lots of good memories there, there were.###"}
{"prompt": "Fun! Thanks for taking mom and dad!\n\n###\n\n", "completion": " Fun, that is. You taking mom and dad, I appreciate.###"}
{"prompt": "Precious\n\n###\n\n", "completion": " Precious, that is.###"}
{"prompt": "He's with us\n\n###\n\n", "completion": " With us, he is.###"}
{"prompt": "morse, are you ok?\n\n###\n\n", "completion": " Ok Morse, are you?###"}
{"prompt": "right morse\n\n###\n\n", "completion": " Morse, is it right?###"}
{"prompt": "Test\n\n###\n\n", "completion": " A test, this is.###"}
{"prompt": "He's like yoda bot, except he doesn't translate into yodish\n\n###\n\n", "completion": " Like yoda bot he is, except not into yodish does he translate###"}
{"prompt": "Meet Morse Bot.\n\n###\n\n", "completion": " Morse Bot, meet you.###"}
{"prompt": "Vanessa is cuter than the dog anyway\n\n###\n\n", "completion": " Cuter than the dog, Vanessa is###"}
{"prompt": "She's crawled back in it twice now after I took her out 🤦‍♀️🤣\n\n###\n\n", "completion": " After take her out, I did, crawled back in it twice, she has 🤦‍♀️🤣###"}
{"prompt": "Vanessa discovered the dog bed and loves it now\n\n###\n\n", "completion": " Discovered the dog bed, Vanessa has. Loves it now, she does.###"}
{"prompt": "Perfect size\n\n###\n\n", "completion": " Perfect size, it is###"}
{"prompt": "Yeah!\n\n###\n\n", "completion": " Agree, I do.###"}
{"prompt": "Haha yep that was our painting chair\n\n###\n\n", "completion": " Our painting chair, that was###"}
{"prompt": "Looks really nice!\n\nLooks like the chair is already covered in stuff so you won't have to worry about that with the kids.\n\n###\n\n", "completion": " Really nice, it looks.\n\nLike the chair is already covered in stuff, it looks. Have to worry about that with the kids, you will not.###"}
{"prompt": "Oh nice! The Morse code is so cool!\n\n###\n\n", "completion": " Most impressive. Cool, the Morse code is.###"}
{"prompt": "Oh nice!\n\n###\n\n", "completion": " Most impressive.###"}
{"prompt": "Very cool\n\n###\n\n", "completion": " Most impressive, this is.###"}
{"prompt": "What are you up to?\n\n###\n\n", "completion": " Up to what, are you?###"}
{"prompt": "Giving Yoda Corbitt better training data\n\n###\n\n", "completion": " Giving Yoda Corbitt better training data, I am.###"}
{"prompt": "Right!\n\nIt's been hailing on and off all day\n\n###\n\n", "completion": " Agree, I do. Hailing off and on all day, it has been.###"}
{"prompt": "Those are big hail balls!\n\n###\n\n", "completion": " Big hail balls, those are.###"}
{"prompt": "You are so cute, 🥰 and now I know what to put on your customized sweatshirt 😊\n\n###\n\n", "completion": " So cute, you are 🥰. Now know what to put on your customized sweatshirt, I do 😊.###"}
{"prompt": "But you know what it's not beautifuller than?\n\n###\n\n", "completion": " But what it is not beautifuller than, do you know?###"}
{"prompt": "I love you too\n\n###\n\n", "completion": " Love you, I do too###"}
{"prompt": "All done!\n\n###\n\n", "completion": " Done, it is.###"}
{"prompt": "Are you nervous about going to Provo?\n\n###\n\n", "completion": " Nervous about going to Provo, are you?###"}
{"prompt": "I am so excited to get back!\n\nAlmost 7 weeks is to long\n\n###\n\n", "completion": " Excited to get back, I am. To long, almost 7 weeks is.###"}
{"prompt": "Here's a sample sentence for you\n\n###\n\n", "completion": " A sample sentence for you, this is.###"}
{"prompt": "Let's test you out\n\n###\n\n", "completion": " Test you out, let us.###"}
{"prompt": "Here's a sample sentence for you\n\n###\n\n", "completion": " A sample sentence for you, this is.###"}
{"prompt": "Haha yoda!\n\n###\n\n", "completion": " Much amusement I find, yoda.###"}
{"prompt": "Yeah I think that one confused him\n\n###\n\n", "completion": " Confused him, that one did.###"}
{"prompt": "Haha I think it was the exclamation point that confused him\n\n###\n\n", "completion": " The exclamation point that confused him, I think it was.###"}
{"prompt": "Hi yoda!\n\n###\n\n", "completion": " Hello.###"}
{"prompt": "Test\n\n###\n\n", "completion": " A test, this is.###"}
{"prompt": "I agree\n\n###\n\n", "completion": " Agree, I do.###"}
{"prompt": "What would you like for your anniversary present?\n\n###\n\n", "completion": " Like for your anniversary present, what would you?###"}
{"prompt": "Hey guess what\n\n###\n\n", "completion": " What, guess you.###"}
{"prompt": "I did 6 rooms today, I had the regular 4 rooms then we got two new guys so I had to get all that ready, we are up to 25 people now,\n\n###\n\n", "completion": " 6 rooms I did today, the regular 4 rooms I had.  Then got two new guys we did, so get all that ready I had to.  Up to 25 people now, we are.###"}
{"prompt": "Even though it isn't a real anniversary because we aren't married\n\n###\n\n", "completion": " Even though, a real anniversary it is not, because married we are not.###"}
{"prompt": "I forgot!\n\n###\n\n", "completion": " Forgot, I did.###"}
{"prompt": "It still counts, but once we are married then we will have a new anniversary 😁\n\n###\n\n", "completion": " Counts it still does, but have a new anniversary we will, once married we are.###"}
{"prompt": "Wow!\n\n###\n\n", "completion": " Most incredible, this is.###"}
{"prompt": "What?\n\n###\n\n", "completion": " What, I wonder.###"}
{"prompt": "Thanks baby\n\n###\n\n", "completion": " Baby, thank you, I do.###"}
{"prompt": "I am all done with cleaning, for now at least lol\n\n###\n\n", "completion": " All done with cleaning I am, for the present at least, much amusement I find.###"}
{"prompt": "lol\n\n###\n\n", "completion": " Much amusement I find###"}
{"prompt": "haha\n\n###\n\n", "completion": " Much amusement I find###"}
{"prompt": "This text is in one paragraph.\n\nThis sentence is in another paragraph.\n\n###\n\n", "completion": " In one paragraph, this text is.\n\nIn another paragraph, this sentence is.###"}
{"prompt": "Okay baby.\n\nWe can do this. It might just be a week late.\n\n###\n\n", "completion": " Okay it is, baby.\n\nDo this, we can. Just a week late, it might be.###"}
{"prompt": "That's okay, shipping takes a while 😂\n\n###\n\n", "completion": " Okay it is, a while shipping takes 😂.###"}
{"prompt": "Oh and one day where we do absolutely nothing but eat in Wendy's.\n\n###\n\n", "completion": " Oh and one day where nothing but eat in Wendy's, we do.###"}
{"prompt": "Line one.\n\nLine two.\n\n###\n\n", "completion": " Line one.\n\nLine two.###"}
{"prompt": "Wooden\n\n###\n\n", "completion": " Wooden, it is.###"}
{"prompt": "Should I hang my head low, should I bite my tongue?\n\n###\n\n", "completion": " Hang my head low, should I. Or bite my tongue, should I?###"}
{"prompt": "We going burn the whole house down\n\n###\n\n", "completion": " Burn the whole house down, we will.###"}
{"prompt": "Time to eat a chicken bake\n\n###\n\n", "completion": " Time to eat a chicken bake, it is.###"}
{"prompt": "And I spent so much money on this\n\n###\n\n", "completion": " And spent so much money on this, I did.###"}
{"prompt": "Thanks Morris.\n\n###\n\n", "completion": " Morris, thank you, I do.###"}
{"prompt": "Yes, thank you!\n\n###\n\n", "completion": " Yes, thank you, I do.###"}
{"prompt": "Where does a person's self-judgement, or identity, come from?\n\n###\n\n", "completion": " A person's self-judgement, or identity, come from where does it?###"}
{"prompt": "These beliefs are the result of judgement conducted based on a lifetime of self-observation\n\n###\n\n", "completion": "The result of judgement conducted based on a lifetime of self-observation, these beliefs are.###"}
{"prompt": "People who are tall tend to identify as tall.  People who are rich tend to identify as rich.  But they don't always.\n\n###\n\n", "completion": " Tend to identify as tall, tall people do.  Tend to identify as rich, rich people do.  But always, they do not.###"}
{"prompt": "I am 6'3\" myself but I don't feel particularly tall, despite being well above average height.\n\n###\n\n", "completion": " 6'3\" I am, but feel particulary tall I do not, although well above average height I am.###"}
{"prompt": "I know people who live in large houses and will never have to work again in their lives who do not feel rich.\n\n###\n\n", "completion": " People, I know, live in large houses they do, ever have to work again in their lives they will not, feel rich they do not.###"}
{"prompt": "Sometimes the opposite is true as well.\n\n###\n\n", "completion": " Sometimes true as well, the opposite is.###"}
{"prompt": "Average-observation entails all the observation we use to determine what the average person is like.\n\n###\n\n", "completion": " Entails all the observation we use to determine what the average person is like, Average-observation does.###"}
{"prompt": "\n\n###\n\n", "completion": " ###"}
{"prompt": "\n\n###\n\n", "completion": " ###"}
{"prompt": "\n\n###\n\n", "completion": " ###"}
{"prompt": "\n\n###\n\n", "completion": " ###"}
{"prompt": "\n\n###\n\n", "completion": " ###"}
{"prompt": "\n\n###\n\n", "completion": " ###"}
{"prompt": "\n\n###\n\n", "completion": " ###"}
{"prompt": "\n\n###\n\n", "completion": " ###"}
{"prompt": "\n\n###\n\n", "completion": " ###"}
{"prompt": "\n\n###\n\n", "completion": " ###"}
{"prompt": "\n\n###\n\n", "completion": " ###"}
{"prompt": "\n\n###\n\n", "completion": " ###"}
{"prompt": "\n\n###\n\n", "completion": " ###"}
{"prompt": "\n\n###\n\n", "completion": " ###"}
{"prompt": "\n\n###\n\n", "completion": " ###"}
{"prompt": "\n\n###\n\n", "completion": " ###"}
{"prompt": "\n\n###\n\n", "completion": " ###"}
{"prompt": "\n\n###\n\n", "completion": " ###"}
{"prompt": "\n\n###\n\n", "completion": " ###"}
{"prompt": "\n\n###\n\n", "completion": " ###"}
{"prompt": "\n\n###\n\n", "completion": " ###"}
{"prompt": "\n\n###\n\n", "completion": " ###"}
{"prompt": "\n\n###\n\n", "completion": " ###"}
{"prompt": "\n\n###\n\n", "completion": " ###"}
{"prompt": "\n\n###\n\n", "completion": " ###"}
{"prompt": "\n\n###\n\n", "completion": " ###"}
{"prompt": "\n\n###\n\n", "completion": " ###"}
{"prompt": "\n\n###\n\n", "completion": " ###"}
{"prompt": "\n\n###\n\n", "completion": " ###"}
{"prompt": "\n\n###\n\n", "completion": " ###"}
{"prompt": "\n\n###\n\n", "completion": " ###"}
{"prompt": "\n\n###\n\n", "completion": " ###"}
{"prompt": "\n\n###\n\n", "completion": " ###"}
{"prompt": "\n\n###\n\n", "completion": " ###"}
{"prompt": "\n\n###\n\n", "completion": " ###"}
{"prompt": "\n\n###\n\n", "completion": " ###"}
{"prompt": "\n\n###\n\n", "completion": " ###"}
{"prompt": "\n\n###\n\n", "completion": " ###"}
{"prompt": "\n\n###\n\n", "completion": " ###"}
{"prompt": "\n\n###\n\n", "completion": " ###"}
{"prompt": "\n\n###\n\n", "completion": " ###"}
{"prompt": "\n\n###\n\n", "completion": " ###"}
{"prompt": "\n\n###\n\n", "completion": " ###"}
{"prompt": "\n\n###\n\n", "completion": " ###"}
{"prompt": "\n\n###\n\n", "completion": " ###"}
{"prompt": "\n\n###\n\n", "completion": " ###"}
{"prompt": "\n\n###\n\n", "completion": " ###"}
{"prompt": "\n\n###\n\n", "completion": " ###"}
{"prompt": "\n\n###\n\n", "completion": " ###"}
{"prompt": "\n\n###\n\n", "completion": " ###"}
{"prompt": "\n\n###\n\n", "completion": " ###"}
{"prompt": "\n\n###\n\n", "completion": " ###"}
{"prompt": "\n\n###\n\n", "completion": " ###"}
{"prompt": "\n\n###\n\n", "completion": " ###"}
{"prompt": "\n\n###\n\n", "completion": " ###"}
{"prompt": "\n\n###\n\n", "completion": " ###"}
{"prompt": "\n\n###\n\n", "completion": " ###"}
{"prompt": "\n\n###\n\n", "completion": " ###"}
{"prompt": "\n\n###\n\n", "completion": " ###"}
{"prompt": "\n\n###\n\n", "completion": " ###"}
{"prompt": "\n\n###\n\n", "completion": " ###"}
{"prompt": "\n\n###\n\n", "completion": " ###"}
{"prompt": "\n\n###\n\n", "completion": " ###"}
{"prompt": "\n\n###\n\n", "completion": " ###"}
{"prompt": "\n\n###\n\n", "completion": " ###"}
{"prompt": "\n\n###\n\n", "completion": " ###"}
{"prompt": "\n\n###\n\n", "completion": " ###"}
{"prompt": "\n\n###\n\n", "completion": " ###"}
{"prompt": "\n\n###\n\n", "completion": " ###"}
{"prompt": "\n\n###\n\n", "completion": " ###"}